{
  "project_info": {
    "project_number": "288036197509",
    "firebase_url": "https://flutter-chat-project-2020.firebaseio.com",
    "project_id": "flutter-chat-project-2020",
    "storage_bucket": "flutter-chat-project-2020.appspot.com"
  },
  "client": [
    {
      "client_info": {
        "mobilesdk_app_id": "1:288036197509:android:aa9abd50e814d30d4ac5ec",
        "android_client_info": {
          "package_name": "com.example.flutterfreegenapp"
        }
      },
      "oauth_client": [
        {
          "client_id": "288036197509-pct1p4oksol2rgtbleg5ele9q08d1aql.apps.googleusercontent.com",
          "client_type": 3
        }
      ],
      "api_key": [
        {
          "current_key": "AIzaSyAwaGp8jfMQRsm7dBoIAufknPrjvS3vZWM"
        }
      ],
      "services": {
        "appinvite_service": {
          "other_platform_oauth_client": [
            {
              "client_id": "288036197509-pct1p4oksol2rgtbleg5ele9q08d1aql.apps.googleusercontent.com",
              "client_type": 3
            }
          ]
        }
      }
    }
  ],
  "configuration_version": "1"
}